{
  "00-VCS": "Version Control System",
  "04-Repository": "GIT Repository là gì?",
  "09-TheGitState": "GIT State",
  "13-Branch": "GIT Branch",
  "17-Remote-Repositories": "Remote Repositories",
  "21-Gitflow": "Gitflow",
  "23-Advance": "Advance - đang phát triển",
  "summary": "Tổng kết"
}
